key	name	pronouns	description
normatiivne	Normatiivsed vormid	tema	Kõige tavalisemad asesõnad
normatiivne alternatiiv	Normatiivsed teises kontekstis	see,nemad	Asesõnad, mida üldjuhul ei kasutata ühe isiku kirjeldamiseks
kirjanduslik	Kirjanduslikud vormid	temake	Asesõnad, mida kasutatakse pigem kirjanduslikus kontekstis
