key	name	pronouns	description
	الأشكال المعيارية	هو,هي	الجدير بالذكر أن الضمائر ≠ الجنس. لا يزال بإمكان المرء أن يكون غير ثنائي و يستخدم الضمائر المتطابقة مع (أو عكس) جنسه المحدد عند الولادة.
	الأشكال الشبه معيارية	هم,هن	كانت هذه الضمائر شائعة الاستخدام في اللغة العربية المعيارية بالفعل، ولكن مؤخرًا حصلت على استخدام جديد مختلف قليلاً: وصف شخص واحد محدد.

